Multivariate analysis for two or more traits
…
## covariance matrices estimation completed.

The number of cores available will vary by computer. For example, on my Macbook pro computer, with 16GB RAM, I have access to 8 cores. If I use all 8, I can’t do other computing tasks, so I often set n_cores to 7.

To check how many cores are available on your computer, if you’re using a Mac or linux operating system, run this code.

parallel::detectCores()

Create a profile LOD plot to visualize results of two-dimensional scan

To visualize results from our two-dimensional scan, we calculate profile LOD for each trait. The code below makes use of the R package ggplot2 to plot profile LODs over the scan region.

out

## # A tibble: 3,375 x 4
##    Var1               Var2               Var3               log10lik
##    <chr>              <chr>              <chr>                 <dbl>
##  1 backupUNC030474070 backupUNC030474070 backupUNC030474070    -560.
##  2 backupUNC030474244 backupUNC030474070 backupUNC030474070    -560.
##  3 UNC030103315       backupUNC030474070 backupUNC030474070    -560.
##  4 UNC030107226       backupUNC030474070 backupUNC030474070    -559.
##  5 JAX00527615        backupUNC030474070 backupUNC030474070    -558.
##  6 UNC030484421       backupUNC030474070 backupUNC030474070    -559.
##  7 JAX00109598        backupUNC030474070 backupUNC030474070    -558.
##  8 backupUNC030619800 backupUNC030474070 backupUNC030474070    -558.
##  9 UNC030314351       backupUNC030474070 backupUNC030474070    -559.
## 10 backupUNC030491543 backupUNC030474070 backupUNC030474070    -559.
## # … with 3,365 more rows
…
